{
  "type": "service_account",
  "project_id": "api-7253303315880260875-700327",
  "private_key_id": "e8be7915111f01f399f634dc2c498d4f39712ed2",
  "private_key": "-----BEGIN PRIVATE KEY-----\nMIIEvQIBADANBgkqhkiG9w0BAQEFAASCBKcwggSjAgEAAoIBAQDFM58Oi+xS0GdD\nidPck6EH16kQOSkkPJ5wJHhTfnmL5yabU7UIBAoOcmIj4tPvKUJl6BxQOCJmg5x+\nylNOymPP4Dj+83XMeLjb57K6IL7uMCHNuGLij05BoZnobpWhkzan2rDCPjgDgXlw\nzRzOdNQ1t/hqWCNPft5D9WKu/XDYIAotWwcHezMy8/yNE/nOdn3Oh3zn1bC3quo7\nmhp+LoLyiGg/6f2jP8meEzb/5hVq5hesF6XMUh1MVTd7vwwQQY509K8KordkL1Fy\nEGtCvHFWIbBaQmtswQe/j6XbMO3tmwaA0z3p92XZLdQRANmttSVB1hl21EnKexXP\nHk1d+LVlAgMBAAECggEADSlS1k+0aBqMqc9LGo+n0bQtDm4iNs7s7CMi/L+WMSYu\nR3Ogw3YxjaFIt4huCKpCSjbhnOECOsFR8oxiXwHXA4q9gxaQqCLug47FOPLyi0cf\nGnHR97kEyhCVCxRGXFBM94r6/RvV9TXw+vxVjdnyR9uNctuLD8Ux5Gs+ONulamcq\n7kn94zy8FIg5Z+3p0ctJ49Y9mBKZvA7OW5D1QhEBVmCi9a3OIKTxsV3aE2q8auI5\nh8jTCWuhVlkkdKHMMjKDKWc5hl3n5pNpEsgphf/J0geBKv/XmOF9gTWRiyeOEtqc\ngbvdbohXirCtXeN34JJRwlysKkZ4LHv3v8ejLYSTgQKBgQD0JTqS3RAiPf3I6fAE\n9UfmF/qnsb5KYKcqQbkmBwHbJ4b8oNWT1phdrsgCqDcfU7rlqlKwgTNxYNaULqtY\nxG65z85z0WZua0KANnAJb5rlkUm8F46uak6I2pDWht8G3mEoyuQkQeTccuInMXjy\nT35tQA7ZQZlVwK3PL6iLwba1EQKBgQDOxt96TDX2i5gXxORo+//n8nmNUixdK8oi\nZdgCr7JeFZJBsndWG5qGmuxsGoh1s/w7Xuy1e+SRWX+k8/un0zcRSOMatMMd/CA5\nopAX9BBZch/9enp2nfM75d51Y3kLUpwc5n19A2OI3veCWVYrQf3tdhsmDJMvzDjz\n/yFNqHIrFQKBgQDoAxkOyBW09MRgUjBOBeo1t0P0aO01MXSqq5qPkMkqwv18xjsx\nKxXQsXBRVhpMIv3Rk3LRWXbRn/1LBK7AxKuU2O6REcYN2NBxl0oRLYY98zvnC1wE\nU/IeC9boh3May+n5IhZ8fkJHXMWeCV2up+y1VdLGk5hr7Zc+9UNuzMAcgQKBgBtu\nOntI3OfGAPk2P27F717fxcw/mG8LvhbuF8fTcwAUMIDSog4kP02YA8Ebi/rBU7a0\nkwZIVzwI+WvyifHrjSSX3LjQPgoeRlAfBqqG0BxtjVzdAJ33uiq6BdbgyU/9N4SF\n9yO8bVnc6ky6eTnn2T3FKzjS9jujBfMoZ0ycCfk5AoGAYCt+vgO8n/SA9odmUS6o\nFrFhT8WolRW6scn4KAG70vMxcsd5rKvXoWTTTn0IOitexj+eWmyQyHI71ZWG6OKo\nc/kZlnQP6NIqSa9c57F/ybbdLDm7zn5EU85+6PlVGprm/LVesWnnHXyQm/NeQGoa\njfHxTuHSslepdIvqvA0uqEI=\n-----END PRIVATE KEY-----\n",
  "client_email": "dzialogi-expo@api-7253303315880260875-700327.iam.gserviceaccount.com",
  "client_id": "103115936618722007245",
  "auth_uri": "https://accounts.google.com/o/oauth2/auth",
  "token_uri": "https://oauth2.googleapis.com/token",
  "auth_provider_x509_cert_url": "https://www.googleapis.com/oauth2/v1/certs",
  "client_x509_cert_url": "https://www.googleapis.com/robot/v1/metadata/x509/dzialogi-expo%40api-7253303315880260875-700327.iam.gserviceaccount.com"
}
